{
    "packageDirectories": [
        {
            "path": "force-app",
            "default": true,
            "package": "GitLabPipelinesPkg",
            "versionName": "Version 1.0",
            "versionNumber": "1.0.0.NEXT"
        }
    ],
    "namespace": "",
    "sfdcLoginUrl": "https://login.salesforce.com",
    "sourceApiVersion": "45.0",
    "packageAliases": {
        "GitLabPipelinesPkg": "0Ho5J0000008OJXSA2"
    }
}